<?xml version="1.0" encoding="UTF-8" standalone="no"?>
<svg
   xmlns:dc="http://purl.org/dc/elements/1.1/"
   xmlns:cc="http://creativecommons.org/ns#"
   xmlns:rdf="http://www.w3.org/1999/02/22-rdf-syntax-ns#"
   xmlns:svg="http://www.w3.org/2000/svg"
   xmlns="http://www.w3.org/2000/svg"
   xmlns:sodipodi="http://sodipodi.sourceforge.net/DTD/sodipodi-0.dtd"
   xmlns:inkscape="http://www.inkscape.org/namespaces/inkscape"
   version="1.1"
   id="Capa_1"
   x="0px"
   y="0px"
   viewBox="0 0 512.001 512.001"
   style="enable-background:new 0 0 512.001 512.001;"
   xml:space="preserve"
   sodipodi:docname="calendar-green.svg"
   inkscape:version="1.0 (4035a4fb49, 2020-05-01)"><metadata
   id="metadata63"><rdf:RDF><cc:Work
       rdf:about=""><dc:format>image/svg+xml</dc:format><dc:type
         rdf:resource="http://purl.org/dc/dcmitype/StillImage" /></cc:Work></rdf:RDF></metadata><defs
   id="defs61" /><sodipodi:namedview
   inkscape:document-rotation="0"
   pagecolor="#ffffff"
   bordercolor="#666666"
   borderopacity="1"
   objecttolerance="10"
   gridtolerance="10"
   guidetolerance="10"
   inkscape:pageopacity="0"
   inkscape:pageshadow="2"
   inkscape:window-width="1366"
   inkscape:window-height="715"
   id="namedview59"
   showgrid="false"
   inkscape:zoom="0.27636665"
   inkscape:cx="201.5976"
   inkscape:cy="478.80779"
   inkscape:window-x="63"
   inkscape:window-y="892"
   inkscape:window-maximized="1"
   inkscape:current-layer="Capa_1" />
<g
   id="g26"
   style="fill:#393e31;fill-opacity:1">
	<g
   id="g24"
   style="fill:#393e31;fill-opacity:1">
		<g
   id="g22"
   style="fill:#393e31;fill-opacity:1">
			<circle
   cx="299"
   cy="210"
   r="20"
   id="circle2"
   style="fill:#393e31;fill-opacity:1" />
			<circle
   cx="299"
   cy="297"
   r="20"
   id="circle4"
   style="fill:#393e31;fill-opacity:1" />
			<circle
   cx="386"
   cy="210"
   r="20"
   id="circle6"
   style="fill:#393e31;fill-opacity:1" />
			<path
   d="m 492,250 c 11.046,0 20,-8.954 20,-20 V 120 C 512,75.888 476.112,40 432,40 H 406 V 20 C 406,8.954 397.046,0 386,0 374.954,0 366,8.954 366,20 V 40 H 275 V 20 C 275,8.954 266.046,0 255,0 243.954,0 235,8.954 235,20 V 40 H 145 V 20 C 145,8.954 136.046,0 125,0 113.954,0 105,8.954 105,20 V 40 H 80 C 35.888,40 0,75.888 0,120 v 312 c 0,44.112 35.888,80 80,80 h 252 c 0.681,0 1.354,-0.035 2.017,-0.102 0.659,0.065 1.319,0.102 1.978,0.102 5.333,0 10.566,-2.134 14.411,-6.127 l 156,-162 c 5.564,-5.778 7.138,-14.321 3.999,-21.701 C 507.266,314.792 500.021,310 492,310 h -96 c -44.112,0 -80,35.888 -80,80 v 82 H 80 C 57.944,472 40,454.056 40,432 V 120 C 40,97.944 57.944,80 80,80 h 25 v 20 c 0,11.046 8.954,20 20,20 11.046,0 20,-8.954 20,-20 V 80 h 90 v 20 c 0,11.046 8.954,20 20,20 11.046,0 20,-8.954 20,-20 V 80 h 91 v 20 c 0,11.046 8.954,20 20,20 11.046,0 20,-8.954 20,-20 V 80 h 26 c 22.056,0 40,17.944 40,40 v 110 c 0,11.046 8.954,20 20,20 z M 356,390 c 0,-22.056 17.944,-40 40,-40 h 48.975 L 356,442.398 Z"
   id="path8"
   style="fill:#393e31;fill-opacity:1" />
			<circle
   cx="125"
   cy="210"
   r="20"
   id="circle10"
   style="fill:#393e31;fill-opacity:1" />
			<circle
   cx="212"
   cy="297"
   r="20"
   id="circle12"
   style="fill:#393e31;fill-opacity:1" />
			<circle
   cx="125"
   cy="384"
   r="20"
   id="circle14"
   style="fill:#393e31;fill-opacity:1" />
			<circle
   cx="125"
   cy="297"
   r="20"
   id="circle16"
   style="fill:#393e31;fill-opacity:1" />
			<circle
   cx="212"
   cy="384"
   r="20"
   id="circle18"
   style="fill:#393e31;fill-opacity:1" />
			<circle
   cx="212"
   cy="210"
   r="20"
   id="circle20"
   style="fill:#393e31;fill-opacity:1" />
		</g>
	</g>
</g>
<g
   id="g28"
   style="fill:#393e31;fill-opacity:1">
</g>
<g
   id="g30"
   style="fill:#393e31;fill-opacity:1">
</g>
<g
   id="g32"
   style="fill:#393e31;fill-opacity:1">
</g>
<g
   id="g34"
   style="fill:#393e31;fill-opacity:1">
</g>
<g
   id="g36"
   style="fill:#393e31;fill-opacity:1">
</g>
<g
   id="g38"
   style="fill:#393e31;fill-opacity:1">
</g>
<g
   id="g40"
   style="fill:#393e31;fill-opacity:1">
</g>
<g
   id="g42"
   style="fill:#393e31;fill-opacity:1">
</g>
<g
   id="g44"
   style="fill:#393e31;fill-opacity:1">
</g>
<g
   id="g46"
   style="fill:#393e31;fill-opacity:1">
</g>
<g
   id="g48"
   style="fill:#393e31;fill-opacity:1">
</g>
<g
   id="g50"
   style="fill:#393e31;fill-opacity:1">
</g>
<g
   id="g52"
   style="fill:#393e31;fill-opacity:1">
</g>
<g
   id="g54"
   style="fill:#393e31;fill-opacity:1">
</g>
<g
   id="g56"
   style="fill:#393e31;fill-opacity:1">
</g>
</svg>
