<?xml version="1.0" encoding="UTF-8" standalone="no"?>
<svg
   xmlns:dc="http://purl.org/dc/elements/1.1/"
   xmlns:cc="http://creativecommons.org/ns#"
   xmlns:rdf="http://www.w3.org/1999/02/22-rdf-syntax-ns#"
   xmlns:svg="http://www.w3.org/2000/svg"
   xmlns="http://www.w3.org/2000/svg"
   xmlns:sodipodi="http://sodipodi.sourceforge.net/DTD/sodipodi-0.dtd"
   xmlns:inkscape="http://www.inkscape.org/namespaces/inkscape"
   sodipodi:docname="logoig-white.svg"
   inkscape:version="1.0 (4035a4fb49, 2020-05-01)"
   id="svg945"
   version="1.1"
   viewBox="0 0 286.22299 286.49756"
   height="286.49756mm"
   width="286.22299mm">
  <defs
     id="defs939" />
  <sodipodi:namedview
     inkscape:window-maximized="1"
     inkscape:window-y="892"
     inkscape:window-x="63"
     inkscape:window-height="715"
     inkscape:window-width="1366"
     showgrid="false"
     inkscape:document-rotation="0"
     inkscape:current-layer="layer1"
     inkscape:document-units="mm"
     inkscape:cy="-129.78393"
     inkscape:cx="655.56795"
     inkscape:zoom="0.175"
     inkscape:pageshadow="2"
     inkscape:pageopacity="0.0"
     borderopacity="1.0"
     bordercolor="#666666"
     pagecolor="#ffffff"
     id="base" />
  <metadata
     id="metadata942">
    <rdf:RDF>
      <cc:Work
         rdf:about="">
        <dc:format>image/svg+xml</dc:format>
        <dc:type
           rdf:resource="http://purl.org/dc/dcmitype/StillImage" />
        <dc:title />
      </cc:Work>
    </rdf:RDF>
  </metadata>
  <g
     transform="translate(-113.91232,68.409494)"
     id="layer1"
     inkscape:groupmode="layer"
     inkscape:label="Layer 1">
    <path
       style="fill:#ffffff;fill-opacity:1;stroke-width:0.264583"
       d="m 249.74761,217.92058 c -15.17619,-0.72871 -31.05079,-4.18862 -45.64064,-9.94746 -5.98129,-2.36087 -16.47812,-7.6059 -21.76059,-10.87321 -17.69996,-10.94784 -32.34435,-24.94238 -44.05277,-42.0979 -8.94649,-13.10867 -16.2023,-29.32882 -20.13882,-45.01975 -3.12686,-12.463624 -4.26258,-21.944554 -4.2422,-35.413584 0.0204,-13.48404 1.18263,-22.89327 4.37929,-35.45416 3.90659,-15.3505 11.19304,-31.5432378 20.00173,-44.4499978 11.70224,-17.1464462 26.36217,-31.1558432 44.05277,-42.0978732 5.28247,-3.267324 15.7793,-8.512342 21.76059,-10.873244 27.94577,-11.03059 58.2941,-13.079177 87.35692,-5.896807 10.70716,2.646087 19.54281,5.923921 29.72123,11.025931 14.67019,7.353551 26.76633,16.17996 38.24041,27.903618 17.73992,18.1257572 30.25574,40.4104 36.45993,64.917543 3.08906,12.20208 4.22904,21.57166 4.24926,34.92499 0.0135,8.88086 -0.20029,12.42295 -1.18933,19.71146 -3.27041,24.100594 -12.67553,46.940804 -27.45327,66.669854 -10.55968,14.09772 -24.25716,26.54175 -39.79119,36.14992 -5.28246,3.26731 -15.7793,8.51234 -21.76061,10.87321 -19.11819,7.54626 -39.62464,10.93515 -60.19271,9.94746 z m 45.77292,-57.19935 c 12.41469,-1.24478 20.55024,-3.92487 28.03451,-9.23541 3.1891,-2.26285 7.83386,-6.90229 10.1328,-10.12117 3.42472,-4.79517 6.47007,-11.89672 7.82394,-18.24493 1.63103,-7.64761 1.89704,-14.44086 1.89614,-48.418754 0,-34.69172 -0.26435,-41.10012 -2.01038,-48.907763 -1.47725,-6.605696 -4.51832,-13.540301 -7.96804,-18.1696538 -2.24374,-3.010972 -6.44517,-7.23884701 -9.26856,-9.326924 -5.52905,-4.089035 -12.24002,-6.933361 -20.04145,-8.4941872 -7.61426,-1.523381 -23.0148,-2.023126 -55.29792,-1.794402 -22.52021,0.159554 -29.21401,0.371795 -34.9022,1.106654 -13.79054,1.7816032 -24.23706,7.1649872 -32.00251,16.4917922 -5.70762,6.8552188 -9.22279,15.4794238 -10.60143,26.0098738 -0.88247,6.7405 -1.05752,13.87286 -1.05752,43.08461 0,33.019644 0.21737,39.031554 1.70766,47.228134 0.48862,2.68735 1.84286,7.21461 3.07586,10.28254 2.26069,5.6251 5.30592,10.19508 9.72862,14.59976 3.60334,3.58865 6.72003,5.85138 11.09353,8.05394 7.58513,3.81998 14.93938,5.4982 26.63195,6.07734 6.76325,0.33499 69.3689,0.14513 73.025,-0.22145 z M 227.6549,145.59955 c -12.63749,-0.44213 -18.1586,-1.38564 -23.84494,-4.0749 -3.31101,-1.56589 -5.38869,-3.03285 -8.0619,-5.69218 -3.3503,-3.33293 -5.36007,-6.57684 -7.05988,-11.39517 -2.5055,-7.10216 -2.9651,-14.78779 -2.96794,-49.631264 -0.003,-34.31646 0.40902,-41.8132 2.6946,-49.052975 1.67966,-5.320496 3.99728,-9.083802 7.87691,-12.790382 3.45333,-3.2992988 6.62066,-5.1248148 11.70727,-6.7475738 7.15234,-2.28179 14.52265,-2.686817 48.89234,-2.686817 22.05558,0 33.70314,0.23922 39.29063,0.806955 17.96809,1.825705 28.1478,11.1898908 30.68455,28.2262828 0.76113,5.11164 0.97391,11.88903 1.11726,35.5876 0.14142,23.38102 -0.11991,39.438994 -0.74179,45.577884 -1.08146,10.6756 -4.55205,18.26446 -10.79222,23.59843 -5.85542,5.00508 -12.78515,7.28028 -24.50113,8.04434 -5.32983,0.34759 -55.77335,0.52786 -64.29376,0.22977 z m 35.10989,-26.84361 c 7.14206,-0.94355 13.89076,-3.6031 19.92811,-7.85332 2.95216,-2.07829 8.22012,-7.3091 10.26273,-10.19038 8.41327,-11.867634 10.59095,-26.232284 6.08924,-40.166484 -3.54446,-10.97119 -12.36558,-20.91114 -23.10351,-26.03387 -3.26575,-1.55798 -6.67598,-2.71137 -10.40755,-3.519956 -2.31829,-0.502352 -3.51064,-0.583491 -8.64245,-0.58814 -5.21216,-0.005 -6.2989,0.0694 -8.73125,0.595749 -17.79123,3.849757 -31.19325,17.217987 -34.92593,34.837887 -0.73373,3.46356 -0.99079,10.20501 -0.5376,14.0987 1.19365,10.25547 5.86421,19.54472 13.51124,26.872404 9.78118,9.37271 23.09941,13.72532 36.55697,11.94741 z m -11.76428,-15.74149 c -9.91994,-2.09124 -18.02137,-9.156564 -21.44912,-18.705934 -2.08372,-5.80506 -2.08355,-13.41299 5.3e-4,-19.21509 3.52078,-9.80232 11.84641,-16.9487 21.96532,-18.85411 7.28544,-1.37186 15.188,0.22347 21.33067,4.30612 8.10368,5.38609 12.88304,14.3273 12.88304,24.10172 0,7.995 -2.82011,14.8235 -8.445,20.44839 -4.27203,4.27202 -9.27942,6.927694 -15.16916,8.044964 -2.91748,0.55343 -8.17594,0.4938 -11.11628,-0.12606 z m 55.65741,-64.820884 c 7.30367,-2.71631 9.11184,-12.018297 3.36958,-17.334604 -2.12473,-1.967121 -3.89013,-2.63035 -6.96634,-2.617126 -3.27019,0.01405 -4.93141,0.677624 -7.12049,2.844247 -0.9026,0.89335 -1.91484,2.215486 -2.24941,2.938087 -3.8841,8.388726 4.34142,17.377216 12.96666,14.169396 z"
       id="path915" />
  </g>
</svg>
