<?xml version="1.0" encoding="UTF-8" standalone="no"?>
<svg
   xmlns:dc="http://purl.org/dc/elements/1.1/"
   xmlns:cc="http://creativecommons.org/ns#"
   xmlns:rdf="http://www.w3.org/1999/02/22-rdf-syntax-ns#"
   xmlns:svg="http://www.w3.org/2000/svg"
   xmlns="http://www.w3.org/2000/svg"
   xmlns:sodipodi="http://sodipodi.sourceforge.net/DTD/sodipodi-0.dtd"
   xmlns:inkscape="http://www.inkscape.org/namespaces/inkscape"
   inkscape:version="1.0 (4035a4fb49, 2020-05-01)"
   sodipodi:docname="Logo-terimakasih.svg"
   id="svg12"
   preserveAspectRatio="xMidYMid meet"
   viewBox="0 0 2452.000000 2480.000000"
   height="2480.000000pt"
   width="2452.000000pt"
   version="1.0">
  <metadata
     id="metadata18">
    <rdf:RDF>
      <cc:Work
         rdf:about="">
        <dc:format>image/svg+xml</dc:format>
        <dc:type
           rdf:resource="http://purl.org/dc/dcmitype/StillImage" />
      </cc:Work>
    </rdf:RDF>
  </metadata>
  <defs
     id="defs16" />
  <sodipodi:namedview
     inkscape:current-layer="svg12"
     inkscape:window-maximized="1"
     inkscape:window-y="-8"
     inkscape:window-x="-8"
     inkscape:cy="2659.8072"
     inkscape:cx="1034.8881"
     inkscape:zoom="0.085584677"
     showgrid="false"
     id="namedview14"
     inkscape:window-height="847"
     inkscape:window-width="1440"
     inkscape:pageshadow="2"
     inkscape:pageopacity="0"
     guidetolerance="10"
     gridtolerance="10"
     objecttolerance="10"
     borderopacity="1"
     bordercolor="#666666"
     pagecolor="#ffffff" />
  <g
     style="fill:#ffffff"
     id="g10"
     stroke="none"
     fill="#000000"
     transform="matrix(0.1,0,0,-0.1,0,2480)">
    <path
       style="fill:#ffffff"
       id="path2"
       d="m 11735,22464 c -593,-36 -1147,-110 -1650,-220 C 7815,21744 5807,20491 4353,18668 3181,17199 2443,15417 2231,13549 c -50,-437 -56,-557 -56,-1154 0,-463 4,-608 18,-775 45,-517 111,-965 203,-1385 500,-2270 1753,-4278 3576,-5732 1469,-1172 3251,-1910 5119,-2122 437,-50 557,-56 1154,-56 463,0 608,4 775,18 517,45 965,111 1385,203 2268,500 4278,1753 5730,3573 1174,1472 1912,3252 2124,5122 50,437 56,557 56,1154 0,463 -4,608 -18,775 -45,517 -111,965 -203,1385 -500,2270 -1753,4278 -3576,5732 -1480,1181 -3276,1921 -5163,2128 -374,41 -508,47 -1035,50 -289,1 -552,1 -585,-1 z m 1030,-54 c 1957,-107 3795,-757 5373,-1902 737,-535 1448,-1224 2018,-1954 940,-1203 1604,-2638 1908,-4121 143,-696 206,-1320 206,-2038 0,-363 -10,-596 -41,-930 -163,-1787 -809,-3498 -1871,-4963 -542,-746 -1236,-1460 -1978,-2037 -883,-685 -1880,-1219 -2940,-1575 -1049,-352 -2079,-520 -3195,-520 -363,0 -596,10 -930,41 -1751,160 -3435,785 -4875,1809 -791,562 -1525,1267 -2125,2040 -686,884 -1219,1880 -1575,2940 -352,1049 -520,2079 -520,3195 0,363 10,596 41,930 163,1787 809,3498 1871,4963 534,735 1225,1449 1954,2018 1106,865 2406,1495 3769,1829 590,145 1232,240 1840,274 221,12 851,13 1070,1 z" />
    <path
       style="fill:#ffffff"
       id="path4"
       d="m 8066,18541 c -5,-7 -2164,-5728 -2198,-5823 l -10,-28 h -359 -359 v -60 -60 h 885 885 v 60 60 l -453,2 -453,3 426,1127 425,1128 949,-3 948,-2 424,-1120 c 233,-616 424,-1123 424,-1127 0,-5 -202,-8 -450,-8 h -450 v -60 -60 h 1265 1265 v 60 60 h -364 -364 l -10,28 c -5,15 -501,1321 -1102,2902 -601,1581 -1097,2887 -1102,2903 l -10,27 h -103 c -57,0 -106,-4 -109,-9 z m 184,-2279 c 244,-645 441,-1175 438,-1177 -3,-3 -403,-4 -891,-3 l -886,3 273,720 c 150,396 350,926 446,1178 95,251 174,456 175,455 1,-2 201,-531 445,-1176 z" />
    <path
       style="fill:#ffffff"
       id="path6"
       d="M 12586,12628 C 11723,9821 11011,7506 11004,7483 l -13,-43 62,-18 c 34,-11 65,-16 68,-13 8,7 3151,10225 3157,10261 3,23 -1,27 -51,43 -29,9 -58,17 -63,17 -5,0 -715,-2296 -1578,-5102 z" />
    <path
       style="fill:#ffffff"
       id="path8"
       d="m 16205,13469 c -44,-5 -495,-11 -1002,-15 l -923,-7 v -58 -59 h 455 455 V 10535 7740 h -455 -455 v -60 -60 h 1325 1325 v 60 60 h -455 -455 v 1345 c 0,740 3,1345 8,1345 4,0 49,-7 101,-15 471,-77 931,-57 1377,60 411,107 742,280 987,515 298,285 431,601 414,985 -12,273 -75,466 -228,696 -75,112 -248,289 -365,372 -331,235 -751,379 -1238,426 -124,12 -749,12 -871,0 z m 712,-133 c 366,-48 563,-132 735,-315 152,-161 240,-380 284,-711 21,-157 24,-552 6,-690 -46,-332 -151,-582 -322,-764 -159,-170 -367,-280 -628,-333 -71,-15 -137,-18 -352,-18 -257,1 -401,12 -567,46 l -53,10 v 1389 1388 l 108,7 c 59,3 116,8 127,10 51,10 550,-5 662,-19 z" />
  </g>
</svg>
